TUGIS 2023 Presentation - Using R as your GIS
…
The package includes “helper” functions like get_area_streets() to filter data by name or location:

area_streets <- get_area_streets(area)

area_streets <- st_transform(area_streets, crs = 3857)

area_streets

Simple feature collection with 40 features and 1 field
Geometry type: GEOMETRY
Dimension:     XY
Bounding box:  xmin: -8526277 ymin: 4763286 xmax: -8525230 ymax: 4764336
Projected CRS: WGS 84 / Pseudo-Mercator
# A tibble: 40 × 2
   fullname                                                             geometry
 * <chr>                                                          <GEOMETRY [m]>
 1 BOYER ST        MULTILINESTRING ((-8525452 4763491, -8525403 4763493, -85253…
 2 CONGRESS CT                   LINESTRING (-8526276 4763464, -8526264 4763464)
 3 E BALTIMORE ST  MULTILINESTRING ((-8525609 4763559, -8525571 4763561), (-852…
 4 E FAIRMOUNT AVE MULTILINESTRING ((-8526123 4763690, -8526068 4763693), (-852…
 5 E FAYETTE ST    MULTILINESTRING ((-8526029 4763885, -8525948 4763889, -85258…
 6 E LOMBARD ST    MULTILINESTRING ((-8526075 4763368, -8526049 4763369, -85260…
 7 IRVINE PL       LINESTRING (-8526266 4763621, -8526267 4763644, -8526269 476…
 8 JEFFERSON ST    MULTILINESTRING ((-8525488 4764246, -8525457 4764247), (-852…
 9 LAMLEY ST       MULTILINESTRING ((-8525552 4763798, -8525528 4763800, -85254…
10 MOYER ST        MULTILINESTRING ((-8525639 4763641, -8525633 4763642), (-852…
# ℹ 30 more rows
…
The dplyr::filter() function limits data to injury crashes:

area_crashes <- st_as_sf(area_crashes, coords = c("longitude", "latitude"))
st_crs(area_crashes) <- 4326

injury_crashes <- filter(area_crashes, report_type == "Injury Crash")

injury_crashes

Simple feature collection with 405 features and 43 fields
Geometry type: POINT
Dimension:     XY
Bounding box:  xmin: -76.59249 ymin: 39.28995 xmax: -76.58349 ymax: 39.29714
Geodetic CRS:  WGS 84
# A tibble: 405 × 44
   crash_date dotw  weekend  year quarter light_desc     county_desc   county_no
 * <date>     <chr> <chr>   <dbl> <chr>   <chr>          <chr>             <dbl>
 1 2018-05-25 Fri   N        2018 Q2      Daylight       Baltimore Ci…        24
 2 2016-08-15 Mon   N        2016 Q3      Daylight       Baltimore Ci…        24
 3 2019-01-07 Mon   N        2019 Q1      Daylight       Baltimore Ci…        24
 4 2016-07-24 Sun   Y        2016 Q3      Dark Lights On Baltimore Ci…        24
 5 2018-12-29 Sat   Y        2018 Q4      Daylight       Baltimore Ci…        24
 6 2016-07-07 Thu   N        2016 Q3      Daylight       Baltimore Ci…        24
 7 2017-11-28 Tue   N        2017 Q4      Dark Lights On Baltimore Ci…        24
 8 2017-10-30 Mon   N        2017 Q4      Daylight       Baltimore Ci…        24
 9 2016-10-15 Sat   Y        2016 Q4      Dark Lights On Baltimore Ci…        24
10 2016-02-12 Fri   N        2016 Q1      <NA>           Baltimore Ci…        24
# ℹ 395 more rows
# ℹ 36 more variables: junction_desc <chr>, collision_type_desc <chr>,
#   surf_cond_desc <chr>, rd_cond_desc <chr>, rd_div_desc <chr>,
#   fix_obj_desc <chr>, report_no <chr>, acc_date <dbl>, acc_time <time>,
#   signal_flag_desc <chr>, signal_flag <chr>, c_m_zone_flag <chr>,
#   harm_event_code1 <dbl>, harm_event_desc2 <chr>, harm_event_code2 <dbl>,
#   rte_no <dbl>, log_mile <dbl>, logmile_dir_flag_desc <chr>, …
…
